<?xml version="1.0" encoding="UTF-8" standalone="no"?>
<svg
   xmlns:dc="http://purl.org/dc/elements/1.1/"
   xmlns:cc="http://creativecommons.org/ns#"
   xmlns:rdf="http://www.w3.org/1999/02/22-rdf-syntax-ns#"
   xmlns:svg="http://www.w3.org/2000/svg"
   xmlns="http://www.w3.org/2000/svg"
   xmlns:sodipodi="http://sodipodi.sourceforge.net/DTD/sodipodi-0.dtd"
   xmlns:inkscape="http://www.inkscape.org/namespaces/inkscape"
   inkscape:version="1.0 (4035a4fb49, 2020-05-01)"
   sodipodi:docname="clouds.svg"
   viewBox="0 0 588.02014 211.93475"
   height="211.93475"
   width="588.02014"
   xml:space="preserve"
   id="svg186"
   version="1.1"><metadata
     id="metadata192"><rdf:RDF><cc:Work
         rdf:about=""><dc:format>image/svg+xml</dc:format><dc:type
           rdf:resource="http://purl.org/dc/dcmitype/StillImage" /><dc:title /></cc:Work></rdf:RDF></metadata><defs
     id="defs190"><rect
       id="rect3795"
       height="33.601715"
       width="0.65885717"
       y="614.10858"
       x="94.216576" /><clipPath
       id="clipPath220"
       clipPathUnits="userSpaceOnUse"><path
         id="path218"
         d="M 0,0 H 689 V 248.33 H 0 Z" /></clipPath><clipPath
       clipPathUnits="userSpaceOnUse"
       id="clipPath220-0"><path
         d="M 0,0 H 689 V 248.33 H 0 Z"
         id="path218-2" /></clipPath></defs><sodipodi:namedview
     inkscape:current-layer="g214"
     inkscape:window-maximized="1"
     inkscape:window-y="-8"
     inkscape:window-x="-8"
     inkscape:cy="110.96212"
     inkscape:cx="222.26213"
     inkscape:zoom="1.6098485"
     showgrid="false"
     id="namedview188"
     inkscape:window-height="1017"
     inkscape:window-width="1920"
     inkscape:pageshadow="2"
     inkscape:pageopacity="0"
     guidetolerance="10"
     gridtolerance="10"
     objecttolerance="10"
     borderopacity="1"
     bordercolor="#666666"
     pagecolor="#ffffff"
     inkscape:document-rotation="0"
     fit-margin-top="0"
     fit-margin-left="0"
     fit-margin-right="0"
     fit-margin-bottom="0" /><g
     transform="matrix(1.3333333,0,0,-1.3333333,-95.467574,617.19561)"
     inkscape:label="thesis"
     inkscape:groupmode="layer"
     id="g194"><g
       transform="translate(81,527.702)"
       id="g208"><g
         transform="matrix(0.64008,0,0,0.64008,-9.2240002,-14.494857)"
         id="g212"><g
           transform="translate(14.410699,16.46937)"
           id="g214"><g
             transform="translate(-14.684598,-343.39958)"
             clip-path="url(#clipPath220-0)"
             id="g216-3"><g
               transform="scale(0.1)"
               id="g222-9"><path
                 id="path224-7"
                 style="fill:#f8fabf;fill-opacity:1;fill-rule:nonzero;stroke:none"
                 d="M 6.66797,1108.35 H 6888.318 V 2473.33 H 6.66797 Z" /><path
                 id="path226-6"
                 style="fill:#bcc3e8;fill-opacity:1;fill-rule:nonzero;stroke:none"
                 d="M 6.61328,366.543 H 6888.3233 v 1398.59 H 6.61328 Z" /><path
                 id="path228-4"
                 style="fill:#ffffff;fill-opacity:1;fill-rule:nonzero;stroke:none"
                 d="m 5245.66,620.211 c -130.56,14.41 -241.74,15.051 -89.83,46.82 257.75,53.922 771.75,38.18 997.5,15 146.57,-15.051 120.81,-26.129 -2.5,-47.5 -200.36,-34.718 -673.38,-39.898 -905.17,-14.32" /><path
                 id="path230-4"
                 style="fill:none;stroke:#100f0d;stroke-width:10;stroke-linecap:butt;stroke-linejoin:miter;stroke-miterlimit:4;stroke-dasharray:none;stroke-opacity:1"
                 d="m 5245.66,620.211 c -130.56,14.41 -241.74,15.051 -89.83,46.82 257.75,53.922 771.75,38.18 997.5,15 146.57,-15.051 120.81,-26.129 -2.5,-47.5 -200.36,-34.718 -673.38,-39.898 -905.17,-14.32 z" /><path
                 id="path232-0"
                 style="fill:#ffffff;fill-opacity:1;fill-rule:nonzero;stroke:none"
                 d="m 5218.16,735.211 c -130.56,14.41 -241.74,15.051 -89.83,46.82 257.75,53.922 771.75,38.18 997.5,15 146.57,-15.051 120.81,-26.129 -2.5,-47.5 -200.36,-34.718 -673.38,-39.898 -905.17,-14.32" /><path
                 id="path234-7"
                 style="fill:none;stroke:#100f0d;stroke-width:10;stroke-linecap:butt;stroke-linejoin:miter;stroke-miterlimit:4;stroke-dasharray:none;stroke-opacity:1"
                 d="m 5218.16,735.211 c -130.56,14.41 -241.74,15.051 -89.83,46.82 257.75,53.922 771.75,38.18 997.5,15 146.57,-15.051 120.81,-26.129 -2.5,-47.5 -200.36,-34.718 -673.38,-39.898 -905.17,-14.32 z" /><path
                 id="path236-2"
                 style="fill:#ffffff;fill-opacity:1;fill-rule:nonzero;stroke:none"
                 d="m 5610.66,842.711 c -130.56,14.41 -241.74,15.051 -89.83,46.82 257.75,53.922 771.75,38.18 997.5,15 146.57,-15.051 120.81,-26.129 -2.5,-47.5 -200.36,-34.718 -673.38,-39.898 -905.17,-14.32" /><path
                 id="path238-4"
                 style="fill:none;stroke:#100f0d;stroke-width:10;stroke-linecap:butt;stroke-linejoin:miter;stroke-miterlimit:4;stroke-dasharray:none;stroke-opacity:1"
                 d="m 5610.66,842.711 c -130.56,14.41 -241.74,15.051 -89.83,46.82 257.75,53.922 771.75,38.18 997.5,15 146.57,-15.051 120.81,-26.129 -2.5,-47.5 -200.36,-34.718 -673.38,-39.898 -905.17,-14.32 z" /><path
                 id="path240-7"
                 style="fill:#ffffff;fill-opacity:1;fill-rule:nonzero;stroke:none"
                 d="m 5290,1281.06 c -160,58.68 -120.01,128.01 6.66,197.36 270.04,147.83 1056.67,94.17 1280,20 265,-88.01 250,-132 75,-200.02 C 6430.43,1212.42 5519.98,1196.73 5290,1281.06" /><path
                 id="path242-4"
                 style="fill:none;stroke:#100f0d;stroke-width:10;stroke-linecap:butt;stroke-linejoin:miter;stroke-miterlimit:4;stroke-dasharray:none;stroke-opacity:1"
                 d="m 5290,1281.06 c -160,58.68 -120.01,128.01 6.66,197.36 270.04,147.83 1056.67,94.17 1280,20 265,-88.01 250,-132 75,-200.02 C 6430.43,1212.42 5519.98,1196.73 5290,1281.06 Z" /><path
                 id="path244-8"
                 style="fill:#ffffff;fill-opacity:1;fill-rule:nonzero;stroke:none"
                 d="m 1483.33,1774.3 c -10,157.5 15,269.17 170,399.17 155,130 297.5,202.5 187.5,200 -110,-2.5 -1339.998,-15 -1392.498,-15 -52.5,0 -130,-12.5 -72.5,-65 57.5,-52.5 310,-327.5 305,-527.5" /><path
                 id="path246-3"
                 style="fill:none;stroke:#100f0d;stroke-width:10;stroke-linecap:butt;stroke-linejoin:miter;stroke-miterlimit:4;stroke-dasharray:none;stroke-opacity:1"
                 d="m 1483.33,1774.3 c -10,157.5 15,269.17 170,399.17 155,130 297.5,202.5 187.5,200 -110,-2.5 -1339.998,-15 -1392.498,-15 -52.5,0 -130,-12.5 -72.5,-65 57.5,-52.5 310,-327.5 305,-527.5" /><path
                 id="path248-3"
                 style="fill:#ffffff;fill-opacity:1;fill-rule:nonzero;stroke:none"
                 d="m 1435.83,1793.47 c 177.5,102.5 282.5,-105 190,-185 73.54,0 197.5,-212.5 52.5,-302.5 170,102.5 340.83,-214.16 157.68,-281.67 119.82,44.17 132.38,-197.839 99.82,-295.827 -32.15,-96.77 -146.33,-122.782 -262.61,-122.782 -116.28,0 -767.47,-3.418 -1007.751,0 -194.637,2.782 -272.137,175.282 -102.137,292.782 l -1.25,-3.153 c -255,10 -241.691,228.45 3.309,283.45 l 2.941,2.2 c -117.5,0 -140,277.5 37.5,287.5 -207.5,37.5 -117.5,360 120,292.5" /><path
                 id="path250-6"
                 style="fill:none;stroke:#100f0d;stroke-width:10;stroke-linecap:butt;stroke-linejoin:miter;stroke-miterlimit:4;stroke-dasharray:none;stroke-opacity:1"
                 d="m 1435.83,1793.47 c 177.5,102.5 282.5,-105 190,-185 73.54,0 197.5,-212.5 52.5,-302.5 170,102.5 340.83,-214.16 157.68,-281.67 119.82,44.17 132.38,-197.839 99.82,-295.827 -32.15,-96.77 -146.33,-122.782 -262.61,-122.782 -116.28,0 -767.47,-3.418 -1007.751,0 -194.637,2.782 -272.137,175.282 -102.137,292.782 l -1.25,-3.153 c -255,10 -241.691,228.45 3.309,283.45 l 2.941,2.2 c -117.5,0 -140,277.5 37.5,287.5 -207.5,37.5 -117.5,360 120,292.5" /><path
                 id="path252-8"
                 style="fill:#ffffff;fill-opacity:1;fill-rule:nonzero;stroke:none"
                 d="m 833.332,1088.47 c -295,-22.5 -177.5,405 -2.5,292.5" /><path
                 id="path254-5"
                 style="fill:none;stroke:#100f0d;stroke-width:10;stroke-linecap:butt;stroke-linejoin:miter;stroke-miterlimit:4;stroke-dasharray:none;stroke-opacity:1"
                 d="m 833.332,1088.47 c -295,-22.5 -177.5,405 -2.5,292.5" /><path
                 id="path256-7"
                 style="fill:#ffffff;fill-opacity:1;fill-rule:nonzero;stroke:none"
                 d="m 828.332,1373.47 c -180,172.5 160,420 289.998,220" /><path
                 id="path258-3"
                 style="fill:none;stroke:#100f0d;stroke-width:10;stroke-linecap:butt;stroke-linejoin:miter;stroke-miterlimit:4;stroke-dasharray:none;stroke-opacity:1"
                 d="m 828.332,1373.47 c -180,172.5 160,420 289.998,220" /><path
                 id="path260-9"
                 style="fill:#ffffff;fill-opacity:1;fill-rule:nonzero;stroke:none"
                 d="m 1348.33,1628.47 c 97.5,182.5 385,-150 137.5,-315" /><path
                 id="path262-0"
                 style="fill:none;stroke:#100f0d;stroke-width:10;stroke-linecap:butt;stroke-linejoin:miter;stroke-miterlimit:4;stroke-dasharray:none;stroke-opacity:1"
                 d="m 1348.33,1628.47 c 97.5,182.5 385,-150 137.5,-315" /><path
                 id="path264-6"
                 style="fill:#ffffff;fill-opacity:1;fill-rule:nonzero;stroke:none"
                 d="m 1115.83,1600.97 c -142.498,272.5 355,355 242.5,45" /><path
                 id="path266-1"
                 style="fill:none;stroke:#100f0d;stroke-width:10;stroke-linecap:butt;stroke-linejoin:miter;stroke-miterlimit:4;stroke-dasharray:none;stroke-opacity:1"
                 d="m 1115.83,1600.97 c -142.498,272.5 355,355 242.5,45" /><path
                 id="path268-2"
                 style="fill:#ffffff;fill-opacity:1;fill-rule:nonzero;stroke:none"
                 d="m 1621.7,693.273 c 290.25,-17.441 174.64,314.027 2.47,226.809" /><path
                 id="path270-0"
                 style="fill:none;stroke:#100f0d;stroke-width:10;stroke-linecap:butt;stroke-linejoin:miter;stroke-miterlimit:4;stroke-dasharray:none;stroke-opacity:1"
                 d="m 1621.7,693.273 c 290.25,-17.441 174.64,314.027 2.47,226.809" /><path
                 id="path272-5"
                 style="fill:#ffffff;fill-opacity:1;fill-rule:nonzero;stroke:none"
                 d="M 1626.63,914.262 C 1803.73,1048.02 1469.2,1239.92 1341.3,1084.84" /><path
                 id="path274-1"
                 style="fill:none;stroke:#100f0d;stroke-width:10;stroke-linecap:butt;stroke-linejoin:miter;stroke-miterlimit:4;stroke-dasharray:none;stroke-opacity:1"
                 d="M 1626.63,914.262 C 1803.73,1048.02 1469.2,1239.92 1341.3,1084.84" /><path
                 id="path276-3"
                 style="fill:#ffffff;fill-opacity:1;fill-rule:nonzero;stroke:none"
                 d="M 1115,1111.98 C 1019.08,1253.5 736.211,995.672 979.719,867.73" /><path
                 id="path278-7"
                 style="fill:none;stroke:#100f0d;stroke-width:10;stroke-linecap:butt;stroke-linejoin:miter;stroke-miterlimit:4;stroke-dasharray:none;stroke-opacity:1"
                 d="M 1115,1111.98 C 1019.08,1253.5 736.211,995.672 979.719,867.73" /><path
                 id="path280-7"
                 style="fill:#ffffff;fill-opacity:1;fill-rule:nonzero;stroke:none"
                 d="m 1343.76,1090.66 c 140.2,211.3 -349.28,275.27 -238.59,34.9" /><path
                 id="path282-2"
                 style="fill:none;stroke:#100f0d;stroke-width:10;stroke-linecap:butt;stroke-linejoin:miter;stroke-miterlimit:4;stroke-dasharray:none;stroke-opacity:1"
                 d="m 1343.76,1090.66 c 140.2,211.3 -349.28,275.27 -238.59,34.9" /><path
                 id="path284-6"
                 style="fill:#ffffff;fill-opacity:1;fill-rule:nonzero;stroke:none"
                 d="M 751.668,1710.97 C 538.332,2004.3 1098.33,2064.3 1011.67,1837.64" /><path
                 id="path286-8"
                 style="fill:none;stroke:#100f0d;stroke-width:10;stroke-linecap:butt;stroke-linejoin:miter;stroke-miterlimit:4;stroke-dasharray:none;stroke-opacity:1"
                 d="M 751.668,1710.97 C 538.332,2004.3 1098.33,2064.3 1011.67,1837.64" /><path
                 id="path288-7"
                 style="fill:#ffffff;fill-opacity:1;fill-rule:nonzero;stroke:none"
                 d="m 811.68,724.313 c -202.645,31.89 -59.309,350.177 71.375,251.109" /><path
                 id="path290-5"
                 style="fill:none;stroke:#100f0d;stroke-width:10;stroke-linecap:butt;stroke-linejoin:miter;stroke-miterlimit:4;stroke-dasharray:none;stroke-opacity:1"
                 d="m 811.68,724.313 c -202.645,31.89 -59.309,350.177 71.375,251.109" /><path
                 id="path292-5"
                 style="fill:#ffffff;fill-opacity:1;fill-rule:nonzero;stroke:none"
                 d="m 4018.98,1447.35 c -130.56,9.94 -241.74,10.37 -89.82,32.27 257.74,37.17 771.74,26.32 997.5,10.34 146.56,-10.37 120.8,-18.01 -2.5,-32.73 -200.37,-23.93 -673.39,-27.5 -905.18,-9.88" /><path
                 id="path294-6"
                 style="fill:none;stroke:#100f0d;stroke-width:10;stroke-linecap:butt;stroke-linejoin:miter;stroke-miterlimit:4;stroke-dasharray:none;stroke-opacity:1"
                 d="m 4018.98,1447.35 c -130.56,9.94 -241.74,10.37 -89.82,32.27 257.74,37.17 771.74,26.32 997.5,10.34 146.56,-10.37 120.8,-18.01 -2.5,-32.73 -200.37,-23.93 -673.39,-27.5 -905.18,-9.88 z" /><path
                 id="path296-7"
                 style="fill:#ffffff;fill-opacity:1;fill-rule:nonzero;stroke:none"
                 d="m 3991.48,1526.62 c -130.56,9.92 -241.74,10.37 -89.82,32.27 257.74,37.16 771.74,26.31 997.5,10.33 146.56,-10.37 120.8,-18.01 -2.5,-32.73 -200.37,-23.93 -673.39,-27.5 -905.18,-9.87" /><path
                 id="path298-0"
                 style="fill:none;stroke:#100f0d;stroke-width:10;stroke-linecap:butt;stroke-linejoin:miter;stroke-miterlimit:4;stroke-dasharray:none;stroke-opacity:1"
                 d="m 3991.48,1526.62 c -130.56,9.92 -241.74,10.37 -89.82,32.27 257.74,37.16 771.74,26.31 997.5,10.33 146.56,-10.37 120.8,-18.01 -2.5,-32.73 -200.37,-23.93 -673.39,-27.5 -905.18,-9.87 z" /><path
                 id="path300-6"
                 style="fill:#ffffff;fill-opacity:1;fill-rule:nonzero;stroke:none"
                 d="m 4383.98,1600.71 c -130.56,9.93 -241.74,10.38 -89.82,32.27 257.74,37.16 771.74,26.31 997.5,10.33 146.56,-10.37 120.8,-18.01 -2.5,-32.73 -200.37,-23.93 -673.39,-27.5 -905.18,-9.87" /><path
                 id="path302-3"
                 style="fill:none;stroke:#100f0d;stroke-width:10;stroke-linecap:butt;stroke-linejoin:miter;stroke-miterlimit:4;stroke-dasharray:none;stroke-opacity:1"
                 d="m 4383.98,1600.71 c -130.56,9.93 -241.74,10.38 -89.82,32.27 257.74,37.16 771.74,26.31 997.5,10.33 146.56,-10.37 120.8,-18.01 -2.5,-32.73 -200.37,-23.93 -673.39,-27.5 -905.18,-9.87 z" /><path
                 id="path304-6"
                 style="fill:#ffffff;fill-opacity:1;fill-rule:nonzero;stroke:none"
                 d="m 4373.34,2163.33 c -130.87,3.71 -423.33,5 -113.33,31.66 23.48,2.03 -93.77,24.06 -66.67,26.67 41.59,4 150.24,4.25 198.34,6.67 106.14,5.32 -265.15,30.59 -150,29.99 174.71,-0.91 531.63,-21 636.66,-16.66 241.67,10 266.67,0 393.34,3.33 34.62,0.91 -186.67,-26.66 -221.66,-36.67 -23.54,-6.74 164.32,-27.95 124.15,-32.74 -200.36,-23.93 -565.83,-18.92 -800.83,-12.25" /><path
                 id="path306-9"
                 style="fill:none;stroke:#100f0d;stroke-width:10;stroke-linecap:butt;stroke-linejoin:miter;stroke-miterlimit:4;stroke-dasharray:none;stroke-opacity:1"
                 d="m 4373.34,2163.33 c -130.87,3.71 -423.33,5 -113.33,31.66 23.48,2.03 -93.77,24.06 -66.67,26.67 41.59,4 150.24,4.25 198.34,6.67 106.14,5.32 -265.15,30.59 -150,29.99 174.71,-0.91 531.63,-21 636.66,-16.66 241.67,10 266.67,0 393.34,3.33 34.62,0.91 -186.67,-26.66 -221.66,-36.67 -23.54,-6.74 164.32,-27.95 124.15,-32.74 -200.36,-23.93 -565.83,-18.92 -800.83,-12.25 z" /><path
                 id="path308-9"
                 style="fill:#ffffff;fill-opacity:1;fill-rule:nonzero;stroke:none"
                 d="m 2518.87,1037.67 c -140.21,211.29 340.99,263.95 230.3,23.58 l -3.38,-4.67 c 95.92,141.52 378.26,50.77 203.26,-191.728" /><path
                 id="path310-2"
                 style="fill:none;stroke:#100f0d;stroke-width:10;stroke-linecap:butt;stroke-linejoin:miter;stroke-miterlimit:4;stroke-dasharray:none;stroke-opacity:1"
                 d="m 2518.87,1037.67 c -140.21,211.29 340.99,263.95 230.3,23.58 l -3.38,-4.67 c 95.92,141.52 378.26,50.77 203.26,-191.728" /><path
                 id="path312-5"
                 style="fill:#ffffff;fill-opacity:1;fill-rule:nonzero;stroke:none"
                 d="m 2948.33,861.672 c 305.4,369.578 490.98,-24.371 312.5,-202.5 -50.9,-50.809 -167.36,-45.84 -275,-47.5 -382.48,-5.922 -795,-7.5 -795,-7.5 -270,0 -129.07,340.668 43.11,253.449 v 0 c -177.1,133.762 156.48,325.509 284.39,170.429" /><path
                 id="path314-3"
                 style="fill:none;stroke:#100f0d;stroke-width:10;stroke-linecap:butt;stroke-linejoin:miter;stroke-miterlimit:4;stroke-dasharray:none;stroke-opacity:1"
                 d="m 2948.33,861.672 c 305.4,369.578 490.98,-24.371 312.5,-202.5 -50.9,-50.809 -167.36,-45.84 -275,-47.5 -382.48,-5.922 -795,-7.5 -795,-7.5 -270,0 -129.07,340.668 43.11,253.449 v 0 c -177.1,133.762 156.48,325.509 284.39,170.429" /><path
                 id="path316-3"
                 style="fill:#ffffff;fill-opacity:1;fill-rule:nonzero;stroke:none"
                 d="m 2691.67,957.492 c -130,199.998 -470,-47.5 -290,-220" /><path
                 id="path318-6"
                 style="fill:none;stroke:#100f0d;stroke-width:10;stroke-linecap:butt;stroke-linejoin:miter;stroke-miterlimit:4;stroke-dasharray:none;stroke-opacity:1"
                 d="m 2691.67,957.492 c -130,199.998 -470,-47.5 -290,-220" /><path
                 id="path320-8"
                 style="fill:#ffffff;fill-opacity:1;fill-rule:nonzero;stroke:none"
                 d="m 2916.9,684.16 c 180,172.5 -160,420 -290,220" /><path
                 id="path322-1"
                 style="fill:none;stroke:#100f0d;stroke-width:10;stroke-linecap:butt;stroke-linejoin:miter;stroke-miterlimit:4;stroke-dasharray:none;stroke-opacity:1"
                 d="m 2916.9,684.16 c 180,172.5 -160,420 -290,220" /><path
                 id="path324-7"
                 style="fill:#ffffff;fill-opacity:1;fill-rule:nonzero;stroke:none"
                 d="m 6031.67,2235.01 c 143.12,-43.95 -334.16,35.87 -222.5,7.5 146.79,-37.3 -425.9,-28.2 -199.47,-6.68 154.14,14.66 -131.21,26.15 -111.32,27.53 30.53,2.13 110.27,2.27 145.58,3.55 77.9,2.85 -121.53,68.79 -41.6,48.84 58.72,-14.64 77.22,-35.46 161.52,-37.73 53.13,-1.43 -87.62,104.93 -53.25,85.69 64.22,-35.96 107.13,-68.51 126.61,-67.94 16.18,0.49 50.72,30.61 58.71,69.27 11.02,53.28 47.15,-162.4 78.91,-73.26 27.52,77.26 209.19,0 256.89,39.96 16.65,13.95 -23.85,-81.25 -104.58,-75.49 -17.89,1.29 91.64,-46.98 38.25,-34.99 -44.51,9.99 -228.52,42.86 -133.75,13.75" /><path
                 id="path326-5"
                 style="fill:none;stroke:#100f0d;stroke-width:10;stroke-linecap:butt;stroke-linejoin:miter;stroke-miterlimit:4;stroke-dasharray:none;stroke-opacity:1"
                 d="m 6031.67,2235.01 c 143.12,-43.95 -334.16,35.87 -222.5,7.5 146.79,-37.3 -425.9,-28.2 -199.47,-6.68 154.14,14.66 -131.21,26.15 -111.32,27.53 30.53,2.13 110.27,2.27 145.58,3.55 77.9,2.85 -121.53,68.79 -41.6,48.84 58.72,-14.64 77.22,-35.46 161.52,-37.73 53.13,-1.43 -87.62,104.93 -53.25,85.69 64.22,-35.96 107.13,-68.51 126.61,-67.94 16.18,0.49 50.72,30.61 58.71,69.27 11.02,53.28 47.15,-162.4 78.91,-73.26 27.52,77.26 209.19,0 256.89,39.96 16.65,13.95 -23.85,-81.25 -104.58,-75.49 -17.89,1.29 91.64,-46.98 38.25,-34.99 -44.51,9.99 -228.52,42.86 -133.75,13.75 z" /><path
                 id="path328-5"
                 style="fill:#ffffff;fill-opacity:1;fill-rule:nonzero;stroke:none"
                 d="m 6096.16,2102.51 c -143.13,-43.95 334.15,35.87 222.5,7.5 -146.8,-37.3 425.9,-28.2 199.46,-6.68 -154.14,14.66 131.21,26.15 111.32,27.53 -30.53,2.13 -110.27,2.27 -145.58,3.55 -77.9,2.85 121.54,68.79 41.6,48.84 -58.72,-14.64 -77.21,-35.46 -161.52,-37.73 -53.12,-1.43 87.62,104.93 53.25,85.69 -64.22,-35.96 -107.13,-68.51 -126.61,-67.94 -16.18,0.49 -50.72,30.61 -58.71,69.27 -11.02,53.28 -47.15,-162.4 -78.91,-73.26 -27.52,77.26 -209.19,0 -256.89,39.96 -16.65,13.95 23.86,-81.25 104.58,-75.49 17.89,1.29 -91.64,-46.98 -38.24,-34.99 44.5,9.99 228.51,42.86 133.75,13.75" /><path
                 id="path330-7"
                 style="fill:none;stroke:#100f0d;stroke-width:10;stroke-linecap:butt;stroke-linejoin:miter;stroke-miterlimit:4;stroke-dasharray:none;stroke-opacity:1"
                 d="m 6096.16,2102.51 c -143.13,-43.95 334.15,35.87 222.5,7.5 -146.8,-37.3 425.9,-28.2 199.46,-6.68 -154.14,14.66 131.21,26.15 111.32,27.53 -30.53,2.13 -110.27,2.27 -145.58,3.55 -77.9,2.85 121.54,68.79 41.6,48.84 -58.72,-14.64 -77.21,-35.46 -161.52,-37.73 -53.12,-1.43 87.62,104.93 53.25,85.69 -64.22,-35.96 -107.13,-68.51 -126.61,-67.94 -16.18,0.49 -50.72,30.61 -58.71,69.27 -11.02,53.28 -47.15,-162.4 -78.91,-73.26 -27.52,77.26 -209.19,0 -256.89,39.96 -16.65,13.95 23.86,-81.25 104.58,-75.49 17.89,1.29 -91.64,-46.98 -38.24,-34.99 44.5,9.99 228.51,42.86 133.75,13.75 z" /><path
                 id="path332-5"
                 style="fill:#ffffff;fill-opacity:1;fill-rule:nonzero;stroke:none"
                 d="m 2005.28,2118.84 c 29.42,26.21 88.36,-1 66.69,-16.99 -21.67,-15.99 -95.87,-8.99 -66.69,16.99" /><path
                 id="path334-5"
                 style="fill:none;stroke:#100f0d;stroke-width:10;stroke-linecap:butt;stroke-linejoin:miter;stroke-miterlimit:4;stroke-dasharray:none;stroke-opacity:1"
                 d="m 2005.28,2118.84 c 29.42,26.21 88.36,-1 66.69,-16.99 -21.67,-15.99 -95.87,-8.99 -66.69,16.99 z" /><path
                 id="path336-0"
                 style="fill:#ffffff;fill-opacity:1;fill-rule:nonzero;stroke:none"
                 d="m 1914,2072.87 c 2.79,23.01 25.8,14.83 25.8,14.83 -1.49,12.59 15.26,34.69 20.05,1.16 -4.63,32.43 30.6,25.83 25.84,6 0,0 0.83,0 17.51,-4 16.67,-3.99 37.93,-35.97 -12.09,-37.97 -36.61,-1.46 -80.86,-10.99 -77.11,19.98" /><path
                 id="path338-4"
                 style="fill:none;stroke:#100f0d;stroke-width:10;stroke-linecap:butt;stroke-linejoin:miter;stroke-miterlimit:4;stroke-dasharray:none;stroke-opacity:1"
                 d="m 1914,2072.87 c 2.79,23.01 25.8,14.83 25.8,14.83 -1.49,12.59 15.26,34.69 20.05,1.16 -4.63,32.43 30.6,25.83 25.84,6 0,0 0.83,0 17.51,-4 16.67,-3.99 37.93,-35.97 -12.09,-37.97 -36.61,-1.46 -80.86,-10.99 -77.11,19.98 z" /><path
                 id="path340-1"
                 style="fill:#ffffff;fill-opacity:1;fill-rule:nonzero;stroke:none"
                 d="m 1868.15,2122.84 c 29.42,26.2 88.37,-0.99 66.69,-16.99 -21.67,-15.97 -95.86,-8.99 -66.69,16.99" /><path
                 id="path342-2"
                 style="fill:none;stroke:#100f0d;stroke-width:10;stroke-linecap:butt;stroke-linejoin:miter;stroke-miterlimit:4;stroke-dasharray:none;stroke-opacity:1"
                 d="m 1868.15,2122.84 c 29.42,26.2 88.37,-0.99 66.69,-16.99 -21.67,-15.97 -95.86,-8.99 -66.69,16.99 z" /><path
                 id="path344-8"
                 style="fill:#ffffff;fill-opacity:1;fill-rule:nonzero;stroke:none"
                 d="m 1941.93,2145.82 c 29.41,26.21 88.36,-0.98 66.68,-16.97 -21.67,-15.99 -95.86,-9 -66.68,16.97" /><path
                 id="path346-7"
                 style="fill:none;stroke:#100f0d;stroke-width:10;stroke-linecap:butt;stroke-linejoin:miter;stroke-miterlimit:4;stroke-dasharray:none;stroke-opacity:1"
                 d="m 1941.93,2145.82 c 29.41,26.21 88.36,-0.98 66.68,-16.97 -21.67,-15.99 -95.86,-9 -66.68,16.97 z" /><path
                 id="path348-5"
                 style="fill:#ffffff;fill-opacity:1;fill-rule:nonzero;stroke:none"
                 d="m 1871.77,2183.47 c 2.78,23.01 25.8,14.82 25.8,14.82 -1.5,12.61 15.26,34.68 20.05,1.17 -4.63,32.43 30.6,25.82 25.84,5.99 0,0 0.83,0 17.51,-3.99 16.66,-4.01 37.92,-35.97 -12.09,-37.98 -36.62,-1.46 -80.86,-10.99 -77.11,19.99" /><path
                 id="path350-9"
                 style="fill:none;stroke:#100f0d;stroke-width:10;stroke-linecap:butt;stroke-linejoin:miter;stroke-miterlimit:4;stroke-dasharray:none;stroke-opacity:1"
                 d="m 1871.77,2183.47 c 2.78,23.01 25.8,14.82 25.8,14.82 -1.5,12.61 15.26,34.68 20.05,1.17 -4.63,32.43 30.6,25.82 25.84,5.99 0,0 0.83,0 17.51,-3.99 16.66,-4.01 37.92,-35.97 -12.09,-37.98 -36.62,-1.46 -80.86,-10.99 -77.11,19.99 z" /><path
                 id="path352-8"
                 style="fill:#ffffff;fill-opacity:1;fill-rule:nonzero;stroke:none"
                 d="m 1994.86,2193.46 c 29.42,26.2 88.36,-1 66.69,-17 -21.67,-15.99 -95.87,-8.99 -66.69,17" /><path
                 id="path354-0"
                 style="fill:none;stroke:#100f0d;stroke-width:10;stroke-linecap:butt;stroke-linejoin:miter;stroke-miterlimit:4;stroke-dasharray:none;stroke-opacity:1"
                 d="m 1994.86,2193.46 c 29.42,26.2 88.36,-1 66.69,-17 -21.67,-15.99 -95.87,-8.99 -66.69,17 z" /><path
                 id="path356-0"
                 style="fill:#ffffff;fill-opacity:1;fill-rule:nonzero;stroke:none"
                 d="m 2305.86,2142 c 29.41,26.2 88.36,-1 66.69,-16.99 -21.67,-15.99 -95.87,-8.99 -66.69,16.99" /><path
                 id="path358-5"
                 style="fill:none;stroke:#100f0d;stroke-width:10;stroke-linecap:butt;stroke-linejoin:miter;stroke-miterlimit:4;stroke-dasharray:none;stroke-opacity:1"
                 d="m 2305.86,2142 c 29.41,26.2 88.36,-1 66.69,-16.99 -21.67,-15.99 -95.87,-8.99 -66.69,16.99 z" /><path
                 id="path360-0"
                 style="fill:#ffffff;fill-opacity:1;fill-rule:nonzero;stroke:none"
                 d="m 2133.59,2077.34 c 2.79,23 25.8,14.82 25.8,14.82 -1.5,12.6 15.26,34.68 20.05,1.17 -4.63,32.42 30.6,25.81 25.83,5.99 0,0 0.84,0 17.51,-3.99 16.68,-4.01 37.94,-35.97 -12.08,-37.98 -36.62,-1.47 -80.87,-10.99 -77.11,19.99" /><path
                 id="path362-2"
                 style="fill:none;stroke:#100f0d;stroke-width:10;stroke-linecap:butt;stroke-linejoin:miter;stroke-miterlimit:4;stroke-dasharray:none;stroke-opacity:1"
                 d="m 2133.59,2077.34 c 2.79,23 25.8,14.82 25.8,14.82 -1.5,12.6 15.26,34.68 20.05,1.17 -4.63,32.42 30.6,25.81 25.83,5.99 0,0 0.84,0 17.51,-3.99 16.68,-4.01 37.94,-35.97 -12.08,-37.98 -36.62,-1.47 -80.87,-10.99 -77.11,19.99 z" /><path
                 id="path364-3"
                 style="fill:#ffffff;fill-opacity:1;fill-rule:nonzero;stroke:none"
                 d="m 2087.74,2127.3 c 29.42,26.21 88.36,-0.99 66.69,-16.98 -21.67,-15.99 -95.87,-8.99 -66.69,16.98" /><path
                 id="path366-2"
                 style="fill:none;stroke:#100f0d;stroke-width:10;stroke-linecap:butt;stroke-linejoin:miter;stroke-miterlimit:4;stroke-dasharray:none;stroke-opacity:1"
                 d="m 2087.74,2127.3 c 29.42,26.21 88.36,-0.99 66.69,-16.98 -21.67,-15.99 -95.87,-8.99 -66.69,16.98 z" /><path
                 id="path368-6"
                 style="fill:#ffffff;fill-opacity:1;fill-rule:nonzero;stroke:none"
                 d="m 2215.86,2145.32 c 29.4,26.21 88.35,-1 66.68,-16.98 -21.68,-15.99 -95.87,-9.01 -66.68,16.98" /><path
                 id="path370-6"
                 style="fill:none;stroke:#100f0d;stroke-width:10;stroke-linecap:butt;stroke-linejoin:miter;stroke-miterlimit:4;stroke-dasharray:none;stroke-opacity:1"
                 d="m 2215.86,2145.32 c 29.4,26.21 88.35,-1 66.68,-16.98 -21.68,-15.99 -95.87,-9.01 -66.68,16.98 z" /><path
                 id="path372-1"
                 style="fill:#ffffff;fill-opacity:1;fill-rule:nonzero;stroke:none"
                 d="m 2091.35,2187.93 c 2.79,23.01 25.81,14.82 25.81,14.82 -1.5,12.61 15.26,34.68 20.05,1.18 -4.63,32.42 30.59,25.81 25.83,5.99 0,0 0.84,0 17.51,-4 16.67,-4.01 37.93,-35.97 -12.09,-37.97 -36.62,-1.46 -80.86,-11 -77.11,19.98" /><path
                 id="path374-9"
                 style="fill:none;stroke:#100f0d;stroke-width:10;stroke-linecap:butt;stroke-linejoin:miter;stroke-miterlimit:4;stroke-dasharray:none;stroke-opacity:1"
                 d="m 2091.35,2187.93 c 2.79,23.01 25.81,14.82 25.81,14.82 -1.5,12.61 15.26,34.68 20.05,1.18 -4.63,32.42 30.59,25.81 25.83,5.99 0,0 0.84,0 17.51,-4 16.67,-4.01 37.93,-35.97 -12.09,-37.97 -36.62,-1.46 -80.86,-11 -77.11,19.98 z" /><path
                 id="path376-3"
                 style="fill:#ffffff;fill-opacity:1;fill-rule:nonzero;stroke:none"
                 d="m 2214.45,2197.92 c 29.42,26.19 88.36,-0.99 66.68,-16.99 -21.66,-15.98 -95.86,-8.99 -66.68,16.99" /><path
                 id="path378-0"
                 style="fill:none;stroke:#100f0d;stroke-width:10;stroke-linecap:butt;stroke-linejoin:miter;stroke-miterlimit:4;stroke-dasharray:none;stroke-opacity:1"
                 d="m 2214.45,2197.92 c 29.42,26.19 88.36,-0.99 66.68,-16.99 -21.66,-15.98 -95.86,-8.99 -66.68,16.99 z" /><path
                 id="path380-9"
                 style="fill:#ffffff;fill-opacity:1;fill-rule:nonzero;stroke:none"
                 d="m 2279.24,2092.17 c 29.42,26.21 88.36,-1 66.69,-16.99 -21.68,-15.99 -95.87,-8.98 -66.69,16.99" /><path
                 id="path382-4"
                 style="fill:none;stroke:#100f0d;stroke-width:10;stroke-linecap:butt;stroke-linejoin:miter;stroke-miterlimit:4;stroke-dasharray:none;stroke-opacity:1"
                 d="m 2279.24,2092.17 c 29.42,26.21 88.36,-1 66.69,-16.99 -21.68,-15.99 -95.87,-8.98 -66.69,16.99 z" /><path
                 id="path384-7"
                 style="fill:#ffffff;fill-opacity:1;fill-rule:nonzero;stroke:none"
                 d="m 2419.64,2126.2 c 2.78,23.01 25.79,14.83 25.79,14.83 -1.49,12.6 15.27,34.68 20.06,1.16 -4.64,32.43 30.59,25.83 25.84,6.01 0,0 0.82,0 17.5,-4.01 16.67,-3.99 37.93,-35.98 -12.09,-37.97 -36.61,-1.46 -80.86,-10.99 -77.1,19.98" /><path
                 id="path386-4"
                 style="fill:none;stroke:#100f0d;stroke-width:10;stroke-linecap:butt;stroke-linejoin:miter;stroke-miterlimit:4;stroke-dasharray:none;stroke-opacity:1"
                 d="m 2419.64,2126.2 c 2.78,23.01 25.79,14.83 25.79,14.83 -1.49,12.6 15.27,34.68 20.06,1.16 -4.64,32.43 30.59,25.83 25.84,6.01 0,0 0.82,0 17.5,-4.01 16.67,-3.99 37.93,-35.98 -12.09,-37.97 -36.61,-1.46 -80.86,-10.99 -77.1,19.98 z" /><path
                 id="path388-0"
                 style="fill:#ffffff;fill-opacity:1;fill-rule:nonzero;stroke:none"
                 d="m 1807.21,2076.16 c 29.42,26.2 88.37,-0.99 66.69,-16.99 -21.67,-15.97 -95.86,-8.99 -66.69,16.99" /><path
                 id="path390-2"
                 style="fill:none;stroke:#100f0d;stroke-width:10;stroke-linecap:butt;stroke-linejoin:miter;stroke-miterlimit:4;stroke-dasharray:none;stroke-opacity:1"
                 d="m 1807.21,2076.16 c 29.42,26.2 88.37,-0.99 66.69,-16.99 -21.67,-15.97 -95.86,-8.99 -66.69,16.99 z" /><path
                 id="path392-3"
                 style="fill:#ffffff;fill-opacity:1;fill-rule:nonzero;stroke:none"
                 d="m 3186.58,2175.81 c 29.41,26.21 88.36,-0.99 66.68,-16.97 -21.66,-16 -95.86,-9 -66.68,16.97" /><path
                 id="path394-9"
                 style="fill:none;stroke:#100f0d;stroke-width:10;stroke-linecap:butt;stroke-linejoin:miter;stroke-miterlimit:4;stroke-dasharray:none;stroke-opacity:1"
                 d="m 3186.58,2175.81 c 29.41,26.21 88.36,-0.99 66.68,-16.97 -21.66,-16 -95.86,-9 -66.68,16.97 z" /><path
                 id="path396-5"
                 style="fill:#ffffff;fill-opacity:1;fill-rule:nonzero;stroke:none"
                 d="m 2324.46,2186.8 c 2.78,23.01 25.8,14.82 25.8,14.82 -1.5,12.61 15.26,34.68 20.05,1.17 -4.63,32.42 30.59,25.82 25.84,5.99 0,0 0.82,0 17.5,-3.99 16.67,-4.01 37.93,-35.97 -12.09,-37.98 -36.61,-1.47 -80.86,-10.99 -77.1,19.99" /><path
                 id="path398-4"
                 style="fill:none;stroke:#100f0d;stroke-width:10;stroke-linecap:butt;stroke-linejoin:miter;stroke-miterlimit:4;stroke-dasharray:none;stroke-opacity:1"
                 d="m 2324.46,2186.8 c 2.78,23.01 25.8,14.82 25.8,14.82 -1.5,12.61 15.26,34.68 20.05,1.17 -4.63,32.42 30.59,25.82 25.84,5.99 0,0 0.82,0 17.5,-3.99 16.67,-4.01 37.93,-35.97 -12.09,-37.98 -36.61,-1.47 -80.86,-10.99 -77.1,19.99 z" /><path
                 id="path400-1"
                 style="fill:#ffffff;fill-opacity:1;fill-rule:nonzero;stroke:none"
                 d="m 2447.55,2196.79 c 29.41,26.2 88.36,-1 66.69,-16.99 -21.67,-16 -95.86,-9 -66.69,16.99" /><path
                 id="path402-7"
                 style="fill:none;stroke:#100f0d;stroke-width:10;stroke-linecap:butt;stroke-linejoin:miter;stroke-miterlimit:4;stroke-dasharray:none;stroke-opacity:1"
                 d="m 2447.55,2196.79 c 29.41,26.2 88.36,-1 66.69,-16.99 -21.67,-16 -95.86,-9 -66.69,16.99 z" /><path
                 id="path404-0"
                 style="fill:#ffffff;fill-opacity:1;fill-rule:nonzero;stroke:none"
                 d="m 2677.55,2126.64 c 29.41,26.19 88.36,-1 66.69,-16.99 -21.67,-16 -95.86,-8.99 -66.69,16.99" /><path
                 id="path406-2"
                 style="fill:none;stroke:#100f0d;stroke-width:10;stroke-linecap:butt;stroke-linejoin:miter;stroke-miterlimit:4;stroke-dasharray:none;stroke-opacity:1"
                 d="m 2677.55,2126.64 c 29.41,26.19 88.36,-1 66.69,-16.99 -21.67,-16 -95.86,-8.99 -66.69,16.99 z" /><path
                 id="path408-7"
                 style="fill:#ffffff;fill-opacity:1;fill-rule:nonzero;stroke:none"
                 d="m 2586.27,2080.66 c 2.79,23.01 25.81,14.83 25.81,14.83 -1.5,12.6 15.26,34.68 20.06,1.17 -4.64,32.42 30.58,25.81 25.82,5.99 0,0 0.84,0 17.51,-3.99 16.68,-4.01 37.93,-35.97 -12.09,-37.98 -36.61,-1.47 -80.87,-10.99 -77.11,19.98" /><path
                 id="path410-7"
                 style="fill:none;stroke:#100f0d;stroke-width:10;stroke-linecap:butt;stroke-linejoin:miter;stroke-miterlimit:4;stroke-dasharray:none;stroke-opacity:1"
                 d="m 2586.27,2080.66 c 2.79,23.01 25.81,14.83 25.81,14.83 -1.5,12.6 15.26,34.68 20.06,1.17 -4.64,32.42 30.58,25.81 25.82,5.99 0,0 0.84,0 17.51,-3.99 16.68,-4.01 37.93,-35.97 -12.09,-37.98 -36.61,-1.47 -80.87,-10.99 -77.11,19.98 z" /><path
                 id="path412-6"
                 style="fill:#ffffff;fill-opacity:1;fill-rule:nonzero;stroke:none"
                 d="m 2540.43,2130.63 c 29.42,26.21 88.35,-0.99 66.69,-16.99 -21.67,-15.98 -95.87,-8.98 -66.69,16.99" /><path
                 id="path414-7"
                 style="fill:none;stroke:#100f0d;stroke-width:10;stroke-linecap:butt;stroke-linejoin:miter;stroke-miterlimit:4;stroke-dasharray:none;stroke-opacity:1"
                 d="m 2540.43,2130.63 c 29.42,26.21 88.35,-0.99 66.69,-16.99 -21.67,-15.98 -95.87,-8.98 -66.69,16.99 z" /><path
                 id="path416-9"
                 style="fill:#ffffff;fill-opacity:1;fill-rule:nonzero;stroke:none"
                 d="m 2614.2,2153.63 c 29.41,26.19 88.36,-1.01 66.69,-16.99 -21.69,-15.99 -95.88,-9.01 -66.69,16.99" /><path
                 id="path418-0"
                 style="fill:none;stroke:#100f0d;stroke-width:10;stroke-linecap:butt;stroke-linejoin:miter;stroke-miterlimit:4;stroke-dasharray:none;stroke-opacity:1"
                 d="m 2614.2,2153.63 c 29.41,26.19 88.36,-1.01 66.69,-16.99 -21.69,-15.99 -95.88,-9.01 -66.69,16.99 z" /><path
                 id="path420-8"
                 style="fill:#ffffff;fill-opacity:1;fill-rule:nonzero;stroke:none"
                 d="m 2544.03,2191.26 c 2.8,23.01 25.82,14.81 25.82,14.81 -1.51,12.63 15.26,34.7 20.05,1.19 -4.64,32.42 30.59,25.81 25.83,5.99 0,0 0.83,0 17.51,-4 16.67,-4 37.92,-35.97 -12.09,-37.97 -36.62,-1.46 -80.86,-11 -77.12,19.98" /><path
                 id="path422-5"
                 style="fill:none;stroke:#100f0d;stroke-width:10;stroke-linecap:butt;stroke-linejoin:miter;stroke-miterlimit:4;stroke-dasharray:none;stroke-opacity:1"
                 d="m 2544.03,2191.26 c 2.8,23.01 25.82,14.81 25.82,14.81 -1.51,12.63 15.26,34.7 20.05,1.19 -4.64,32.42 30.59,25.81 25.83,5.99 0,0 0.83,0 17.51,-4 16.67,-4 37.92,-35.97 -12.09,-37.97 -36.62,-1.46 -80.86,-11 -77.12,19.98 z" /><path
                 id="path424-2"
                 style="fill:#ffffff;fill-opacity:1;fill-rule:nonzero;stroke:none"
                 d="m 2667.13,2201.25 c 29.42,26.2 88.37,-1 66.68,-16.99 -21.65,-15.99 -95.86,-8.99 -66.68,16.99" /><path
                 id="path426-9"
                 style="fill:none;stroke:#100f0d;stroke-width:10;stroke-linecap:butt;stroke-linejoin:miter;stroke-miterlimit:4;stroke-dasharray:none;stroke-opacity:1"
                 d="m 2667.13,2201.25 c 29.42,26.2 88.37,-1 66.68,-16.99 -21.65,-15.99 -95.86,-8.99 -66.68,16.99 z" /><path
                 id="path428-4"
                 style="fill:#ffffff;fill-opacity:1;fill-rule:nonzero;stroke:none"
                 d="m 2775.91,2118.84 c 29.42,26.21 88.35,-1 66.69,-16.99 -21.68,-15.99 -95.86,-8.99 -66.69,16.99" /><path
                 id="path430-4"
                 style="fill:none;stroke:#100f0d;stroke-width:10;stroke-linecap:butt;stroke-linejoin:miter;stroke-miterlimit:4;stroke-dasharray:none;stroke-opacity:1"
                 d="m 2775.91,2118.84 c 29.42,26.21 88.35,-1 66.69,-16.99 -21.68,-15.99 -95.86,-8.99 -66.69,16.99 z" /><path
                 id="path432-1"
                 style="fill:#ffffff;fill-opacity:1;fill-rule:nonzero;stroke:none"
                 d="m 2862.97,2126.2 c 2.78,23.01 25.8,14.83 25.8,14.83 -1.5,12.6 15.26,34.68 20.04,1.16 -4.63,32.43 30.61,25.83 25.86,6.01 0,0 0.82,0 17.48,-4.01 16.68,-3.99 37.95,-35.98 -12.07,-37.97 -36.62,-1.46 -80.86,-10.99 -77.11,19.98" /><path
                 id="path434-9"
                 style="fill:none;stroke:#100f0d;stroke-width:10;stroke-linecap:butt;stroke-linejoin:miter;stroke-miterlimit:4;stroke-dasharray:none;stroke-opacity:1"
                 d="m 2862.97,2126.2 c 2.78,23.01 25.8,14.83 25.8,14.83 -1.5,12.6 15.26,34.68 20.04,1.16 -4.63,32.43 30.61,25.83 25.86,6.01 0,0 0.82,0 17.48,-4.01 16.68,-3.99 37.95,-35.98 -12.07,-37.97 -36.62,-1.46 -80.86,-10.99 -77.11,19.98 z" /><path
                 id="path436-9"
                 style="fill:#ffffff;fill-opacity:1;fill-rule:nonzero;stroke:none"
                 d="m 2933.25,2082.48 c 29.41,26.22 88.36,-0.98 66.68,-16.97 -21.66,-15.99 -95.86,-9.01 -66.68,16.97" /><path
                 id="path438-3"
                 style="fill:none;stroke:#100f0d;stroke-width:10;stroke-linecap:butt;stroke-linejoin:miter;stroke-miterlimit:4;stroke-dasharray:none;stroke-opacity:1"
                 d="m 2933.25,2082.48 c 29.41,26.22 88.36,-0.98 66.68,-16.97 -21.66,-15.99 -95.86,-9.01 -66.68,16.97 z" /><path
                 id="path440-2"
                 style="fill:#ffffff;fill-opacity:1;fill-rule:nonzero;stroke:none"
                 d="m 2767.79,2186.8 c 2.79,23.01 25.8,14.82 25.8,14.82 -1.49,12.61 15.27,34.68 20.05,1.17 -4.63,32.42 30.6,25.82 25.84,5.99 0,0 0.82,0 17.5,-3.99 16.68,-4.01 37.93,-35.97 -12.09,-37.98 -36.6,-1.47 -80.86,-10.99 -77.1,19.99" /><path
                 id="path442-9"
                 style="fill:none;stroke:#100f0d;stroke-width:10;stroke-linecap:butt;stroke-linejoin:miter;stroke-miterlimit:4;stroke-dasharray:none;stroke-opacity:1"
                 d="m 2767.79,2186.8 c 2.79,23.01 25.8,14.82 25.8,14.82 -1.49,12.61 15.27,34.68 20.05,1.17 -4.63,32.42 30.6,25.82 25.84,5.99 0,0 0.82,0 17.5,-3.99 16.68,-4.01 37.93,-35.97 -12.09,-37.98 -36.6,-1.47 -80.86,-10.99 -77.1,19.99 z" /><path
                 id="path444-8"
                 style="fill:#ffffff;fill-opacity:1;fill-rule:nonzero;stroke:none"
                 d="m 2890.88,2196.79 c 29.42,26.2 88.36,-1 66.68,-16.99 -21.66,-16 -95.86,-9 -66.68,16.99" /><path
                 id="path446-2"
                 style="fill:none;stroke:#100f0d;stroke-width:10;stroke-linecap:butt;stroke-linejoin:miter;stroke-miterlimit:4;stroke-dasharray:none;stroke-opacity:1"
                 d="m 2890.88,2196.79 c 29.42,26.2 88.36,-1 66.68,-16.99 -21.66,-16 -95.86,-9 -66.68,16.99 z" /><path
                 id="path448-0"
                 style="fill:#ffffff;fill-opacity:1;fill-rule:nonzero;stroke:none"
                 d="m 3120.89,2126.64 c 29.42,26.19 88.36,-1 66.68,-16.99 -21.66,-16 -95.86,-8.99 -66.68,16.99" /><path
                 id="path450-0"
                 style="fill:none;stroke:#100f0d;stroke-width:10;stroke-linecap:butt;stroke-linejoin:miter;stroke-miterlimit:4;stroke-dasharray:none;stroke-opacity:1"
                 d="m 3120.89,2126.64 c 29.42,26.19 88.36,-1 66.68,-16.99 -21.66,-16 -95.86,-8.99 -66.68,16.99 z" /><path
                 id="path452-5"
                 style="fill:#ffffff;fill-opacity:1;fill-rule:nonzero;stroke:none"
                 d="m 3029.59,2080.66 c 2.8,23.01 25.83,14.83 25.83,14.83 -1.5,12.6 15.26,34.68 20.06,1.17 -4.65,32.42 30.59,25.81 25.82,5.99 0,0 0.84,0 17.5,-3.99 16.68,-4.01 37.93,-35.97 -12.09,-37.98 -36.6,-1.47 -80.87,-10.99 -77.12,19.98" /><path
                 id="path454-0"
                 style="fill:none;stroke:#100f0d;stroke-width:10;stroke-linecap:butt;stroke-linejoin:miter;stroke-miterlimit:4;stroke-dasharray:none;stroke-opacity:1"
                 d="m 3029.59,2080.66 c 2.8,23.01 25.83,14.83 25.83,14.83 -1.5,12.6 15.26,34.68 20.06,1.17 -4.65,32.42 30.59,25.81 25.82,5.99 0,0 0.84,0 17.5,-3.99 16.68,-4.01 37.93,-35.97 -12.09,-37.98 -36.6,-1.47 -80.87,-10.99 -77.12,19.98 z" /><path
                 id="path456-9"
                 style="fill:#ffffff;fill-opacity:1;fill-rule:nonzero;stroke:none"
                 d="m 2983.75,2130.63 c 29.44,26.21 88.37,-0.99 66.71,-16.99 -21.69,-15.98 -95.88,-8.98 -66.71,16.99" /><path
                 id="path458-3"
                 style="fill:none;stroke:#100f0d;stroke-width:10;stroke-linecap:butt;stroke-linejoin:miter;stroke-miterlimit:4;stroke-dasharray:none;stroke-opacity:1"
                 d="m 2983.75,2130.63 c 29.44,26.21 88.37,-0.99 66.71,-16.99 -21.69,-15.98 -95.88,-8.98 -66.71,16.99 z" /><path
                 id="path460-5"
                 style="fill:#ffffff;fill-opacity:1;fill-rule:nonzero;stroke:none"
                 d="m 3057.53,2153.63 c 29.42,26.19 88.36,-1.01 66.7,-16.99 -21.7,-15.99 -95.89,-9.01 -66.7,16.99" /><path
                 id="path462-4"
                 style="fill:none;stroke:#100f0d;stroke-width:10;stroke-linecap:butt;stroke-linejoin:miter;stroke-miterlimit:4;stroke-dasharray:none;stroke-opacity:1"
                 d="m 3057.53,2153.63 c 29.42,26.19 88.36,-1.01 66.7,-16.99 -21.7,-15.99 -95.89,-9.01 -66.7,16.99 z" /><path
                 id="path464-9"
                 style="fill:#ffffff;fill-opacity:1;fill-rule:nonzero;stroke:none"
                 d="m 2987.37,2191.26 c 2.79,23.01 25.82,14.81 25.82,14.81 -1.52,12.63 15.25,34.7 20.04,1.19 -4.63,32.42 30.59,25.81 25.83,5.99 0,0 0.84,0 17.52,-4 16.68,-4 37.93,-35.97 -12.09,-37.97 -36.63,-1.46 -80.87,-11 -77.12,19.98" /><path
                 id="path466-2"
                 style="fill:none;stroke:#100f0d;stroke-width:10;stroke-linecap:butt;stroke-linejoin:miter;stroke-miterlimit:4;stroke-dasharray:none;stroke-opacity:1"
                 d="m 2987.37,2191.26 c 2.79,23.01 25.82,14.81 25.82,14.81 -1.52,12.63 15.25,34.7 20.04,1.19 -4.63,32.42 30.59,25.81 25.83,5.99 0,0 0.84,0 17.52,-4 16.68,-4 37.93,-35.97 -12.09,-37.97 -36.63,-1.46 -80.87,-11 -77.12,19.98 z" /><path
                 id="path468-4"
                 style="fill:#ffffff;fill-opacity:1;fill-rule:nonzero;stroke:none"
                 d="m 3110.46,2201.25 c 29.44,26.2 88.38,-1 66.68,-16.99 -21.64,-15.99 -95.86,-8.99 -66.68,16.99" /><path
                 id="path470-6"
                 style="fill:none;stroke:#100f0d;stroke-width:10;stroke-linecap:butt;stroke-linejoin:miter;stroke-miterlimit:4;stroke-dasharray:none;stroke-opacity:1"
                 d="m 3110.46,2201.25 c 29.44,26.2 88.38,-1 66.68,-16.99 -21.64,-15.99 -95.86,-8.99 -66.68,16.99 z" /><path
                 id="path472-9"
                 style="fill:none;stroke:#100f0d;stroke-width:10;stroke-linecap:butt;stroke-linejoin:miter;stroke-miterlimit:4;stroke-dasharray:none;stroke-opacity:1"
                 d="M 3771.67,2478.33 3765,5" /><g
                 transform="scale(10)"
                 id="g474-2"><text
                   y="22.3783"
                   x="92.002708"
                   id="text478-5"
                   style="font-variant:normal;font-weight:normal;font-size:18.7477px;font-family:Myriad;-inkscape-font-specification:Myriad-Roman;writing-mode:lr-tb;fill:#100f0d;fill-opacity:1;fill-rule:nonzero;stroke:none"
                   transform="matrix(0,1,1,0,0,0)"><tspan
                     id="tspan476-6"
                     sodipodi:role="line"
                     x="92.002708"
                     y="22.3783"
                     style="font-style:normal;font-variant:normal;font-weight:normal;font-stretch:normal;font-size:18.7477px;font-family:Cambria;-inkscape-font-specification:Cambria">voda</tspan></text></g><path
                 id="path496-9"
                 style="fill:#ffffff;fill-opacity:1;fill-rule:nonzero;stroke:none"
                 d="m 291.668,5 h 6593.33 V 365 H 291.668 Z" /><path
                 id="path498-2"
                 style="fill:none;stroke:#100f0d;stroke-width:10;stroke-linecap:butt;stroke-linejoin:miter;stroke-miterlimit:4;stroke-dasharray:none;stroke-opacity:1"
                 d="m 291.668,5 h 6593.33 V 365 H 291.668 Z" /><path
                 id="path500-4"
                 style="fill:none;stroke:#100f0d;stroke-width:10;stroke-linecap:butt;stroke-linejoin:miter;stroke-miterlimit:4;stroke-dasharray:none;stroke-opacity:1"
                 d="M 291.668,2478.33 V 348.34" /><path
                 id="path502-1"
                 style="fill:none;stroke:#100f0d;stroke-width:10;stroke-linecap:butt;stroke-linejoin:miter;stroke-miterlimit:4;stroke-dasharray:none;stroke-opacity:1"
                 d="M 5,365 H 6885 V 2478.34 H 5 Z" /><g
                 transform="scale(10)"
                 id="g504-7"><text
                   id="text508-0"
                   style="font-variant:normal;font-weight:normal;font-size:24px;font-family:Myriad;-inkscape-font-specification:Myriad-Roman;writing-mode:lr-tb;fill:#100f0d;fill-opacity:1;fill-rule:nonzero;stroke:none"
                   transform="matrix(1,0,0,-1,118.167,10.5023)"><tspan
                     y="0"
                     x="0"
                     id="tspan506-6"
                     sodipodi:role="line" /></text></g><path
                 id="path510-8"
                 style="fill:#ffffff;fill-opacity:1;fill-rule:nonzero;stroke:none"
                 d="m 2785.98,1570.45 c 69.96,34.13 210.16,-1.3 158.61,-22.14 -51.54,-20.83 -228,-11.7 -158.61,22.14" /><path
                 id="path512-3"
                 style="fill:none;stroke:#100f0d;stroke-width:10;stroke-linecap:butt;stroke-linejoin:miter;stroke-miterlimit:4;stroke-dasharray:none;stroke-opacity:1"
                 d="m 2785.98,1570.45 c 69.96,34.13 210.16,-1.3 158.61,-22.14 -51.54,-20.83 -228,-11.7 -158.61,22.14 z" /><path
                 id="path514-6"
                 style="fill:#ffffff;fill-opacity:1;fill-rule:nonzero;stroke:none"
                 d="m 2568.88,1510.56 c 6.62,29.97 61.37,19.3 61.37,19.3 -3.58,16.42 36.3,45.2 47.67,1.53 -11,42.24 72.8,33.64 61.47,7.81 0,0 1.98,0 41.64,-5.21 39.65,-5.2 90.21,-46.87 -28.75,-49.47 -87.09,-1.9 -192.32,-14.32 -183.4,26.04" /><path
                 id="path516-7"
                 style="fill:none;stroke:#100f0d;stroke-width:10;stroke-linecap:butt;stroke-linejoin:miter;stroke-miterlimit:4;stroke-dasharray:none;stroke-opacity:1"
                 d="m 2568.88,1510.56 c 6.62,29.97 61.37,19.3 61.37,19.3 -3.58,16.42 36.3,45.2 47.67,1.53 -11,42.24 72.8,33.64 61.47,7.81 0,0 1.98,0 41.64,-5.21 39.65,-5.2 90.21,-46.87 -28.75,-49.47 -87.09,-1.9 -192.32,-14.32 -183.4,26.04 z" /><path
                 id="path518-8"
                 style="fill:#ffffff;fill-opacity:1;fill-rule:nonzero;stroke:none"
                 d="m 2459.83,1575.66 c 69.96,34.13 210.17,-1.3 158.61,-22.13 -51.55,-20.83 -228.01,-11.72 -158.61,22.13" /><path
                 id="path520-7"
                 style="fill:none;stroke:#100f0d;stroke-width:10;stroke-linecap:butt;stroke-linejoin:miter;stroke-miterlimit:4;stroke-dasharray:none;stroke-opacity:1"
                 d="m 2459.83,1575.66 c 69.96,34.13 210.17,-1.3 158.61,-22.13 -51.55,-20.83 -228.01,-11.72 -158.61,22.13 z" /><path
                 id="path522-3"
                 style="fill:#ffffff;fill-opacity:1;fill-rule:nonzero;stroke:none"
                 d="m 2635.31,1605.6 c 69.95,34.14 210.15,-1.3 158.6,-22.12 -51.55,-20.84 -228.01,-11.73 -158.6,22.12" /><path
                 id="path524-7"
                 style="fill:none;stroke:#100f0d;stroke-width:10;stroke-linecap:butt;stroke-linejoin:miter;stroke-miterlimit:4;stroke-dasharray:none;stroke-opacity:1"
                 d="m 2635.31,1605.6 c 69.95,34.14 210.15,-1.3 158.6,-22.12 -51.55,-20.84 -228.01,-11.73 -158.6,22.12 z" /><path
                 id="path526-6"
                 style="fill:#ffffff;fill-opacity:1;fill-rule:nonzero;stroke:none"
                 d="m 2468.42,1654.65 c 6.63,29.96 61.37,19.31 61.37,19.31 -3.57,16.41 36.3,45.18 47.68,1.52 -11,42.23 72.78,33.63 61.47,7.81 0,0 1.97,0 41.63,-5.21 39.66,-5.21 90.21,-46.87 -28.75,-49.47 -87.09,-1.91 -192.32,-14.33 -183.4,26.04" /><path
                 id="path528-4"
                 style="fill:none;stroke:#100f0d;stroke-width:10;stroke-linecap:butt;stroke-linejoin:miter;stroke-miterlimit:4;stroke-dasharray:none;stroke-opacity:1"
                 d="m 2468.42,1654.65 c 6.63,29.96 61.37,19.31 61.37,19.31 -3.57,16.41 36.3,45.18 47.68,1.52 -11,42.23 72.78,33.63 61.47,7.81 0,0 1.97,0 41.63,-5.21 39.66,-5.21 90.21,-46.87 -28.75,-49.47 -87.09,-1.91 -192.32,-14.33 -183.4,26.04 z" /><path
                 id="path530-9"
                 style="fill:#ffffff;fill-opacity:1;fill-rule:nonzero;stroke:none"
                 d="m 2761.2,1667.66 c 69.96,34.13 210.16,-1.3 158.61,-22.13 -51.54,-20.84 -228.01,-11.72 -158.61,22.13" /><path
                 id="path532-7"
                 style="fill:none;stroke:#100f0d;stroke-width:10;stroke-linecap:butt;stroke-linejoin:miter;stroke-miterlimit:4;stroke-dasharray:none;stroke-opacity:1"
                 d="m 2761.2,1667.66 c 69.96,34.13 210.16,-1.3 158.61,-22.13 -51.54,-20.84 -228.01,-11.72 -158.61,22.13 z" /><path
                 id="path534-9"
                 style="fill:#ffffff;fill-opacity:1;fill-rule:nonzero;stroke:none"
                 d="m 3308.27,1576.27 c 69.96,34.12 210.15,-1.31 158.61,-22.14 -51.56,-20.83 -228.01,-11.72 -158.61,22.14" /><path
                 id="path536-3"
                 style="fill:none;stroke:#100f0d;stroke-width:10;stroke-linecap:butt;stroke-linejoin:miter;stroke-miterlimit:4;stroke-dasharray:none;stroke-opacity:1"
                 d="m 3308.27,1576.27 c 69.96,34.12 210.15,-1.31 158.61,-22.14 -51.56,-20.83 -228.01,-11.72 -158.61,22.14 z" /><path
                 id="path538-4"
                 style="fill:#ffffff;fill-opacity:1;fill-rule:nonzero;stroke:none"
                 d="m 3091.16,1516.37 c 6.62,29.98 61.36,19.31 61.36,19.31 -3.55,16.41 36.31,45.19 47.7,1.53 -11.02,42.24 72.77,33.63 61.45,7.8 0,0 1.99,0 41.64,-5.2 39.66,-5.21 90.21,-46.87 -28.75,-49.48 -87.09,-1.9 -192.33,-14.31 -183.4,26.04" /><path
                 id="path540-1"
                 style="fill:none;stroke:#100f0d;stroke-width:10;stroke-linecap:butt;stroke-linejoin:miter;stroke-miterlimit:4;stroke-dasharray:none;stroke-opacity:1"
                 d="m 3091.16,1516.37 c 6.62,29.98 61.36,19.31 61.36,19.31 -3.55,16.41 36.31,45.19 47.7,1.53 -11.02,42.24 72.77,33.63 61.45,7.8 0,0 1.99,0 41.64,-5.2 39.66,-5.21 90.21,-46.87 -28.75,-49.48 -87.09,-1.9 -192.33,-14.31 -183.4,26.04 z" /><path
                 id="path542-4"
                 style="fill:#ffffff;fill-opacity:1;fill-rule:nonzero;stroke:none"
                 d="m 2982.11,1581.46 c 69.97,34.15 210.16,-1.28 158.62,-22.12 -51.55,-20.83 -228.01,-11.71 -158.62,22.12" /><path
                 id="path544-6"
                 style="fill:none;stroke:#100f0d;stroke-width:10;stroke-linecap:butt;stroke-linejoin:miter;stroke-miterlimit:4;stroke-dasharray:none;stroke-opacity:1"
                 d="m 2982.11,1581.46 c 69.97,34.15 210.16,-1.28 158.62,-22.12 -51.55,-20.83 -228.01,-11.71 -158.62,22.12 z" /><path
                 id="path546-6"
                 style="fill:#ffffff;fill-opacity:1;fill-rule:nonzero;stroke:none"
                 d="m 3157.58,1611.42 c 69.96,34.13 210.16,-1.31 158.62,-22.13 -51.57,-20.83 -228.02,-11.73 -158.62,22.13" /><path
                 id="path548-6"
                 style="fill:none;stroke:#100f0d;stroke-width:10;stroke-linecap:butt;stroke-linejoin:miter;stroke-miterlimit:4;stroke-dasharray:none;stroke-opacity:1"
                 d="m 3157.58,1611.42 c 69.96,34.13 210.16,-1.31 158.62,-22.13 -51.57,-20.83 -228.02,-11.73 -158.62,22.13 z" /><path
                 id="path550-0"
                 style="fill:#ffffff;fill-opacity:1;fill-rule:nonzero;stroke:none"
                 d="m 2990.71,1660.46 c 6.62,29.97 61.37,19.31 61.37,19.31 -3.57,16.41 36.3,45.18 47.67,1.53 -11,42.24 72.79,33.62 61.47,7.81 0,0 1.99,0 41.64,-5.21 39.64,-5.22 90.21,-46.88 -28.75,-49.47 -87.1,-1.92 -192.33,-14.33 -183.4,26.03" /><path
                 id="path552-7"
                 style="fill:none;stroke:#100f0d;stroke-width:10;stroke-linecap:butt;stroke-linejoin:miter;stroke-miterlimit:4;stroke-dasharray:none;stroke-opacity:1"
                 d="m 2990.71,1660.46 c 6.62,29.97 61.37,19.31 61.37,19.31 -3.57,16.41 36.3,45.18 47.67,1.53 -11,42.24 72.79,33.62 61.47,7.81 0,0 1.99,0 41.64,-5.21 39.64,-5.22 90.21,-46.88 -28.75,-49.47 -87.1,-1.92 -192.33,-14.33 -183.4,26.03 z" /><path
                 id="path554-3"
                 style="fill:#ffffff;fill-opacity:1;fill-rule:nonzero;stroke:none"
                 d="m 3283.48,1673.48 c 69.98,34.12 210.18,-1.31 158.61,-22.14 -51.54,-20.83 -228,-11.72 -158.61,22.14" /><path
                 id="path556-5"
                 style="fill:none;stroke:#100f0d;stroke-width:10;stroke-linecap:butt;stroke-linejoin:miter;stroke-miterlimit:4;stroke-dasharray:none;stroke-opacity:1"
                 d="m 3283.48,1673.48 c 69.98,34.12 210.18,-1.31 158.61,-22.14 -51.54,-20.83 -228,-11.72 -158.61,22.14 z" /><g
                 transform="scale(10)"
                 id="g558-8"><text
                   id="text562-3"
                   style="font-variant:normal;font-weight:normal;font-size:17px;font-family:Myriad;-inkscape-font-specification:Myriad-Roman;writing-mode:lr-tb;fill:#100f0d;fill-opacity:1;fill-rule:nonzero;stroke:none"
                   transform="matrix(1,0,0,-1,257.717,129.922)"><tspan
                     y="0"
                     x="0"
                     id="tspan560-1"
                     sodipodi:role="line" /></text></g><path
                 id="path564-5"
                 style="fill:#ffffff;fill-opacity:1;fill-rule:nonzero;stroke:none"
                 d="m 4297.5,830.953 c 176.44,65.527 530,-2.5 400,-42.5 -130,-40 -575,-22.5 -400,42.5" /><path
                 id="path566-0"
                 style="fill:none;stroke:#100f0d;stroke-width:10;stroke-linecap:butt;stroke-linejoin:miter;stroke-miterlimit:4;stroke-dasharray:none;stroke-opacity:1"
                 d="m 4297.5,830.953 c 176.44,65.527 530,-2.5 400,-42.5 -130,-40 -575,-22.5 -400,42.5 z" /><path
                 id="path568-0"
                 style="fill:#ffffff;fill-opacity:1;fill-rule:nonzero;stroke:none"
                 d="m 3750,715.953 c 16.71,57.547 154.76,37.07 154.76,37.07 -8.99,31.52 91.56,86.778 120.24,2.93 -27.74,81.11 183.56,64.59 155,15 0,0 5,0 105,-10 100,-10 227.5,-90 -72.5,-95 -219.62,-3.66 -485,-27.5 -462.5,50" /><path
                 id="path570-9"
                 style="fill:none;stroke:#100f0d;stroke-width:10;stroke-linecap:butt;stroke-linejoin:miter;stroke-miterlimit:4;stroke-dasharray:none;stroke-opacity:1"
                 d="m 3750,715.953 c 16.71,57.547 154.76,37.07 154.76,37.07 -8.99,31.52 91.56,86.778 120.24,2.93 -27.74,81.11 183.56,64.59 155,15 0,0 5,0 105,-10 100,-10 227.5,-90 -72.5,-95 -219.62,-3.66 -485,-27.5 -462.5,50 z" /><path
                 id="path572-6"
                 style="fill:#ffffff;fill-opacity:1;fill-rule:nonzero;stroke:none"
                 d="m 3475,840.953 c 176.44,65.527 530,-2.5 400,-42.5 -130,-40 -575,-22.5 -400,42.5" /><path
                 id="path574-1"
                 style="fill:none;stroke:#100f0d;stroke-width:10;stroke-linecap:butt;stroke-linejoin:miter;stroke-miterlimit:4;stroke-dasharray:none;stroke-opacity:1"
                 d="m 3475,840.953 c 176.44,65.527 530,-2.5 400,-42.5 -130,-40 -575,-22.5 -400,42.5 z" /><path
                 id="path576-0"
                 style="fill:#ffffff;fill-opacity:1;fill-rule:nonzero;stroke:none"
                 d="m 3917.5,898.453 c 176.44,65.527 530,-2.5 400,-42.5 -130,-40 -575,-22.5 -400,42.5" /><path
                 id="path578-8"
                 style="fill:none;stroke:#100f0d;stroke-width:10;stroke-linecap:butt;stroke-linejoin:miter;stroke-miterlimit:4;stroke-dasharray:none;stroke-opacity:1"
                 d="m 3917.5,898.453 c 176.44,65.527 530,-2.5 400,-42.5 -130,-40 -575,-22.5 -400,42.5 z" /><path
                 id="path580-5"
                 style="fill:#ffffff;fill-opacity:1;fill-rule:nonzero;stroke:none"
                 d="m 3496.67,992.621 c 16.71,57.549 154.76,37.069 154.76,37.069 -8.99,31.52 91.56,86.77 120.24,2.93 -27.74,81.11 183.56,64.59 155,15 0,0 5,0 105,-10 100,-10 227.5,-89.999 -72.5,-94.999 -219.62,-3.66 -485,-27.5 -462.5,50" /><path
                 id="path582-2"
                 style="fill:none;stroke:#100f0d;stroke-width:10;stroke-linecap:butt;stroke-linejoin:miter;stroke-miterlimit:4;stroke-dasharray:none;stroke-opacity:1"
                 d="m 3496.67,992.621 c 16.71,57.549 154.76,37.069 154.76,37.069 -8.99,31.52 91.56,86.77 120.24,2.93 -27.74,81.11 183.56,64.59 155,15 0,0 5,0 105,-10 100,-10 227.5,-89.999 -72.5,-94.999 -219.62,-3.66 -485,-27.5 -462.5,50 z" /><path
                 id="path584-6"
                 style="fill:#ffffff;fill-opacity:1;fill-rule:nonzero;stroke:none"
                 d="m 4235,1017.61 c 176.44,65.53 530,-2.5 400,-42.497 -130,-40 -575,-22.5 -400,42.497" /><path
                 id="path586-8"
                 style="fill:none;stroke:#100f0d;stroke-width:10;stroke-linecap:butt;stroke-linejoin:miter;stroke-miterlimit:4;stroke-dasharray:none;stroke-opacity:1"
                 d="m 4235,1017.61 c 176.44,65.53 530,-2.5 400,-42.497 -130,-40 -575,-22.5 -400,42.497 z" /><g
                 transform="scale(10)"
                 id="g588-3"><text
                   id="text592-1"
                   style="font-variant:normal;font-weight:normal;font-size:17px;font-family:Myriad;-inkscape-font-specification:Myriad-Roman;writing-mode:lr-tb;fill:#100f0d;fill-opacity:1;fill-rule:nonzero;stroke:none"
                   transform="matrix(1,0,0,-1,350.667,49.3813)"><tspan
                     y="0"
                     x="0"
                     id="tspan590-0"
                     sodipodi:role="line" /></text></g></g></g><text
             transform="matrix(0.00866509,0.99996246,0.99996246,-0.00866509,0,0)"
             id="text4388"
             y="9.1144638"
             x="-146.42641"
             style="font-style:normal;font-weight:normal;font-size:18.7477px;line-height:1.25;font-family:sans-serif;fill:#000000;fill-opacity:1;stroke:none;stroke-width:1.17173"
             xml:space="preserve"><tspan
               style="font-style:normal;font-variant:normal;font-weight:normal;font-stretch:normal;font-size:18.7477px;font-family:Cambria;-inkscape-font-specification:Cambria;writing-mode:lr-tb;stroke-width:1.17173"
               y="9.1144638"
               x="-146.42641"
               id="tspan4386"
               sodipodi:role="line">led</tspan></text><text
             transform="scale(1,-1)"
             id="text4392"
             y="299.2981"
             x="38.675327"
             style="font-style:normal;font-weight:normal;font-size:18.7477px;line-height:1.25;font-family:sans-serif;fill:#000000;fill-opacity:1;stroke:none;stroke-width:1.17173"
             xml:space="preserve"><tspan
               style="font-style:normal;font-variant:normal;font-weight:normal;font-stretch:normal;font-size:18.7477px;font-family:Cambria;-inkscape-font-specification:Cambria;stroke-width:1.17173"
               y="299.2981"
               x="38.675327"
               id="tspan4390"
               sodipodi:role="line">cumulonimbus</tspan></text><text
             transform="scale(1,-1)"
             xml:space="preserve"
             style="font-style:normal;font-weight:normal;font-size:18.7477px;line-height:1.25;font-family:sans-serif;fill:#000000;fill-opacity:1;stroke:none;stroke-width:1.17173"
             x="215.94444"
             y="299.95187"
             id="text4392-5"><tspan
               sodipodi:role="line"
               id="tspan4390-9"
               x="215.94444"
               y="299.95187"
               style="font-style:normal;font-variant:normal;font-weight:normal;font-stretch:normal;font-size:18.7477px;font-family:Cambria;-inkscape-font-specification:Cambria;stroke-width:1.17173">cumulus</tspan></text><text
             transform="scale(1,-1)"
             id="text4414"
             y="155.18379"
             x="182.78967"
             style="font-style:normal;font-weight:normal;font-size:18.7477px;line-height:1.25;font-family:sans-serif;fill:#000000;fill-opacity:1;stroke:none;stroke-width:1.17173"
             xml:space="preserve"><tspan
               style="font-style:normal;font-variant:normal;font-weight:normal;font-stretch:normal;font-size:18.7477px;font-family:Cambria;-inkscape-font-specification:Cambria;stroke-width:1.17173"
               y="155.18379"
               x="182.78967"
               id="tspan4412"
               sodipodi:role="line">cirrocumulus</tspan></text><text
             transform="scale(1,-1)"
             id="text4418"
             y="211.95613"
             x="232.28351"
             style="font-style:normal;font-weight:normal;font-size:18.7477px;line-height:1.25;font-family:sans-serif;fill:#000000;fill-opacity:1;stroke:none;stroke-width:1.17173"
             xml:space="preserve"><tspan
               style="font-style:normal;font-variant:normal;font-weight:normal;font-stretch:normal;font-size:18.7477px;font-family:Cambria;-inkscape-font-specification:Cambria;stroke-width:1.17173"
               y="211.95613"
               x="232.28351"
               id="tspan4416"
               sodipodi:role="line">altocumulus</tspan></text><text
             transform="scale(1,-1)"
             xml:space="preserve"
             style="font-style:normal;font-weight:normal;font-size:18.7477px;line-height:1.25;font-family:sans-serif;fill:#000000;fill-opacity:1;stroke:none;stroke-width:1.17173"
             x="404.40131"
             y="147.10332"
             id="text4418-4"><tspan
               sodipodi:role="line"
               id="tspan4416-8"
               x="404.40131"
               y="147.10332"
               style="font-style:normal;font-variant:normal;font-weight:normal;font-stretch:normal;font-size:18.7477px;font-family:Cambria;-inkscape-font-specification:Cambria;stroke-width:1.17173">cirrostratus</tspan></text><text
             transform="scale(1,-1)"
             id="text4418-4-6"
             y="219.50845"
             x="387.39499"
             style="font-style:normal;font-weight:normal;font-size:18.7477px;line-height:1.25;font-family:sans-serif;fill:#000000;fill-opacity:1;stroke:none;stroke-width:1.17173"
             xml:space="preserve"><tspan
               style="font-style:normal;font-variant:normal;font-weight:normal;font-stretch:normal;font-size:18.7477px;font-family:Cambria;-inkscape-font-specification:Cambria;stroke-width:1.17173"
               y="219.50845"
               x="387.39499"
               id="tspan4416-8-4"
               sodipodi:role="line">altostratus</tspan></text><text
             transform="scale(1,-1)"
             xml:space="preserve"
             style="font-style:normal;font-weight:normal;font-size:18.7477px;line-height:1.25;font-family:sans-serif;fill:#000000;fill-opacity:1;stroke:none;stroke-width:1.17173"
             x="333.43738"
             y="292.67337"
             id="text4418-4-6-0"><tspan
               sodipodi:role="line"
               id="tspan4416-8-4-9"
               x="333.43738"
               y="292.67337"
               style="font-style:normal;font-variant:normal;font-weight:normal;font-stretch:normal;font-size:18.7477px;font-family:Cambria;-inkscape-font-specification:Cambria;stroke-width:1.17173">stratocumulus</tspan></text><text
             transform="scale(1,-1)"
             id="text4476"
             y="297.84244"
             x="519.05652"
             style="font-style:normal;font-weight:normal;font-size:18.7477px;line-height:1.25;font-family:sans-serif;fill:#000000;fill-opacity:1;stroke:none;stroke-width:1.17173"
             xml:space="preserve"><tspan
               style="font-style:normal;font-variant:normal;font-weight:normal;font-stretch:normal;font-size:18.7477px;font-family:Cambria;-inkscape-font-specification:Cambria;stroke-width:1.17173"
               y="297.84244"
               x="519.05652"
               id="tspan4474"
               sodipodi:role="line">stratus</tspan></text><text
             transform="scale(1,-1)"
             xml:space="preserve"
             style="font-style:normal;font-weight:normal;font-size:18.7477px;line-height:1.25;font-family:sans-serif;fill:#000000;fill-opacity:1;stroke:none;stroke-width:1.17173"
             x="529.07605"
             y="237.76886"
             id="text4476-5"><tspan
               sodipodi:role="line"
               id="tspan4474-9"
               x="529.07605"
               y="237.76886"
               style="font-style:normal;font-variant:normal;font-weight:normal;font-stretch:normal;font-size:18.7477px;font-family:Cambria;-inkscape-font-specification:Cambria;stroke-width:1.17173">nimbostratus</tspan></text><text
             transform="scale(1,-1)"
             id="text4498"
             y="152.27238"
             x="572.91742"
             style="font-style:normal;font-weight:normal;font-size:18.7477px;line-height:1.25;font-family:sans-serif;fill:#000000;fill-opacity:1;stroke:none;stroke-width:1.17173"
             xml:space="preserve"><tspan
               style="font-style:normal;font-variant:normal;font-weight:normal;font-stretch:normal;font-size:18.7477px;font-family:Cambria;-inkscape-font-specification:Cambria;stroke-width:1.17173"
               y="152.27238"
               x="572.91742"
               id="tspan4496"
               sodipodi:role="line">cirrus</tspan></text><text
             transform="scale(1,-1)"
             xml:space="preserve"
             style="font-style:normal;font-weight:normal;font-size:18.7477px;line-height:1.25;font-family:sans-serif;fill:#000000;fill-opacity:1;stroke:none;stroke-width:1.17173"
             x="128.60243"
             y="329.06589"
             id="text4392-7"><tspan
               sodipodi:role="line"
               id="tspan4390-1"
               x="128.60243"
               y="329.06589"
               style="font-style:normal;font-variant:normal;font-weight:normal;font-stretch:normal;font-size:18.7477px;font-family:Cambria;-inkscape-font-specification:Cambria;stroke-width:1.17173">kumuliformni</tspan></text><text
             transform="scale(1,-1)"
             id="text4392-7-4"
             y="329.06589"
             x="459.93094"
             style="font-style:normal;font-weight:normal;font-size:18.7477px;line-height:1.25;font-family:sans-serif;fill:#000000;fill-opacity:1;stroke:none;stroke-width:1.17173"
             xml:space="preserve"><tspan
               style="font-style:normal;font-variant:normal;font-weight:normal;font-stretch:normal;font-size:18.7477px;font-family:Cambria;-inkscape-font-specification:Cambria;stroke-width:1.17173"
               y="329.06589"
               x="459.93094"
               id="tspan4390-1-2"
               sodipodi:role="line">stratiformni</tspan></text></g></g></g><text
       style="font-style:normal;font-weight:normal;font-size:30px;line-height:1.25;font-family:sans-serif;white-space:pre;shape-inside:url(#rect3795);fill:#000000;fill-opacity:1;stroke:none;"
       id="text3793"
       xml:space="preserve" /></g></svg>
